{
  "project_info": {
    "project_number": "635389075733",
    "firebase_url": "https://androidcicdwithjenkins.firebaseio.com",
    "project_id": "androidcicdwithjenkins",
    "storage_bucket": "androidcicdwithjenkins.appspot.com"
  },
  "client": [
    {
      "client_info": {
        "mobilesdk_app_id": "1:635389075733:android:1f9e5f85a46f3608",
        "android_client_info": {
          "package_name": "com.example.rushikeshkarde.androidcicdwithjenkins"
        }
      },
      "oauth_client": [
        {
          "client_id": "635389075733-rr51vkpfmdjjmsi762ad0fju728flern.apps.googleusercontent.com",
          "client_type": 1,
          "android_info": {
            "package_name": "com.example.rushikeshkarde.androidcicdwithjenkins",
            "certificate_hash": "6ea06a8431d8023c74dbf168c3acefe6aa1ef8c2"
          }
        },
        {
          "client_id": "635389075733-sgt5lhljkdisbqoi5eh971qkd2ajc4aa.apps.googleusercontent.com",
          "client_type": 3
        }
      ],
      "api_key": [
        {
          "current_key": "AIzaSyCOKNYGogLYfa3RogBWPzi3wu19nLdJgWU"
        }
      ],
      "services": {
        "appinvite_service": {
          "other_platform_oauth_client": [
            {
              "client_id": "635389075733-sgt5lhljkdisbqoi5eh971qkd2ajc4aa.apps.googleusercontent.com",
              "client_type": 3
            }
          ]
        }
      }
    }
  ],
  "configuration_version": "1"
}